<?xml version="1.0" encoding="UTF-8"?>
<svg width="394px" height="69px" viewBox="0 0 394 69" version="1.1" xmlns="http://www.w3.org/2000/svg" xmlns:xlink="http://www.w3.org/1999/xlink">
    <!-- Generator: Sketch 57.1 (83088) - https://sketch.com -->
    <title>Group 2 Copy</title>
    <desc>Created with Sketch.</desc>
    <g id="Page-1" stroke="none" stroke-width="1" fill="none" fill-rule="evenodd">
        <g id="Artboard" fill="#FFFFFF" fill-rule="nonzero">
            <g id="Group-2-Copy">
                <g id="XMLID_1713_">
                    <g id="XMLID_1714_">
                        <path d="M66.7,31.46 C47.32,32.16 31.68,47.8 30.97,67.19 C30.94,67.94 31.54,68.56 32.29,68.56 L60.2,68.56 C64.54,68.56 68.0601193,65.04 68.0601193,60.7 L68.0601193,32.79 C68.07,32.03 67.45,31.43 66.7,31.46 Z" id="XMLID_1716_"/>
                        <path d="M60.2,0.92 L25.5,0.92 C11.66,0.92 0.44,12.14 0.44,25.98 L0.44,60.68 C0.44,65.02 3.96,68.54 8.3,68.54 L12.99,68.54 C13.7,68.54 14.28,67.97 14.28,67.26 C14.95,38.61 38.14,15.42 66.8,14.76 C67.5,14.75 68.07,14.18 68.07,13.47 L68.07,8.78 C68.07,4.44 64.55,0.92 60.2,0.92 Z" id="XMLID_1715_"/>
                    </g>
                </g>
                <g id="XMLID_1687_" transform="translate(84.000000, 17.000000)">
                    <g id="XMLID_1711_">
                        <path d="M17.86,27.13 C15.23,27.13 13.07,26.25 11.39,24.57 C9.7,22.82 8.83,20.59 8.83,17.96 C8.83,12.57 12.67,8.72 17.87,8.72 C20.75,8.72 23.26,9.95 24.79,11.98 C25.29,12.65 26.2,12.86 26.93,12.44 L31.64,9.68 C32.45,9.2 32.69,8.14 32.16,7.36 C29.15,2.9 23.85,0.15 17.94,0.15 C12.88,0.15 8.63,1.84 5.19,5.28 C1.82,8.72 0.13,12.9 0.13,17.96 C0.13,23.02 1.82,27.2 5.19,30.64 C8.63,34.08 12.88,35.77 17.94,35.77 C23.84,35.77 29.08,32.97 32.23,28.52 C32.78,27.74 32.55,26.64 31.71,26.17 L26.98,23.47 C26.26,23.06 25.36,23.27 24.86,23.93 C23.33,25.94 20.81,27.13 17.86,27.13 Z" id="XMLID_1712_"/>
                    </g>
                    <g id="XMLID_1707_" transform="translate(157.000000, 0.000000)">
                        <path d="M17.8,0.46 C12.61,0.46 8.29,2.15 4.99,5.59 C1.69,8.96 0,13.21 0,18.27 C0,23.4 1.69,27.64 5.06,31.02 C8.43,34.39 12.88,36.08 18.48,36.08 C24.47,36.08 29.13,34 32.41,29.9 C32.84,29.37 32.69,28.57 32.09,28.23 L27.38,25.51 C26.72,25.13 25.88,25.21 25.34,25.74 C23.69,27.35 21.41,28.18 18.6,28.18 C13.41,28.18 10.24,26.09 9.09,21.84 L31.31,21.84 C33.27,21.84 34.85,20.26 34.85,18.3 L34.85,18.27 C34.85,13.21 33.23,9.03 29.99,5.59 C26.83,2.15 22.72,0.46 17.8,0.46 Z M8.96,15.1 C9.97,10.78 13.14,8.29 17.8,8.29 C21.78,8.29 25.15,10.52 26.16,15.1 L8.96,15.1 Z" id="XMLID_1708_"/>
                    </g>
                    <g id="XMLID_1705_" transform="translate(197.000000, 1.000000)">
                        <path d="M26.59,17.47 C26.59,20.07 25.74,22.22 24.05,23.91 C22.36,25.6 20.27,26.45 17.74,26.45 C15.2,26.45 13.12,25.6 11.43,23.91 C9.8,22.22 8.96,20.07 8.96,17.47 L8.96,1.63 C8.96,0.88 8.35,0.27 7.6,0.27 L2.13,0.27 C1.27,0.27 0.56,0.97 0.56,1.84 L0.56,17.47 C0.56,22.29 2.19,26.39 5.51,29.71 C8.83,33.03 12.93,34.66 17.75,34.66 C22.57,34.66 26.67,33.03 29.99,29.71 C33.31,26.39 35,22.29 35,17.47 L35,1.84 C35,0.98 34.3,0.27 33.43,0.27 L28.17,0.27 C27.31,0.27 26.6,0.97 26.6,1.84 L26.6,17.47 L26.59,17.47 Z" id="XMLID_1706_"/>
                    </g>
                    <path d="M301.84,2.76 L301.84,14.46 C296.88,15.41 291.72,15.36 286.78,14.34 L286.78,2.77 C286.78,1.94 286.11,1.28 285.29,1.28 L280.15,1.28 C279.32,1.28 278.66,1.95 278.66,2.77 L278.66,33.2 C278.66,34.03 279.33,34.69 280.15,34.69 L285.29,34.69 C286.12,34.69 286.78,34.02 286.78,33.2 L286.78,22.7 C289.36,23.14 291.98,23.39 294.62,23.39 C297.05,23.39 299.46,23.18 301.84,22.81 L301.84,33.19 C301.84,34.02 302.51,34.68 303.33,34.68 L308.47,34.68 C309.3,34.68 309.96,34.01 309.96,33.19 L309.96,2.76 C309.96,1.93 309.29,1.27 308.47,1.27 L303.33,1.27 C302.51,1.27 301.84,1.93 301.84,2.76 Z" id="XMLID_1704_"/>
                    <g id="XMLID_1700_" transform="translate(121.000000, 1.000000)">
                        <path d="M30.65,9.4 C29.58,4.17 24.95,0.26 19.19,0.26 L2.41,0.26 C1.6,0.26 0.95,0.91 0.95,1.72 L0.95,32.2 C0.95,33.01 1.6,33.66 2.41,33.66 L7.78,33.66 C8.59,33.66 9.24,33.01 9.24,32.2 L9.24,27.47 L9.24,24.9 L18.18,24.9 C23.75,24.9 28.84,21.41 30.52,16.1 C31.29,13.72 31.2,11.46 30.65,9.4 Z M17.26,17.61 L9.05,17.61 L9.05,7.23 L17.26,7.23 C20.13,7.23 22.45,9.55 22.45,12.42 C22.45,15.29 20.13,17.61 17.26,17.61 Z" id="XMLID_1701_"/>
                    </g>
                    <g id="XMLID_1695_" transform="translate(37.000000, 0.000000)">
                        <g id="XMLID_1696_">
                            <path d="M18.48,0.16 C13.49,0.16 9.24,1.91 5.8,5.35 C2.36,8.79 0.67,12.97 0.67,17.96 C0.67,22.95 2.36,27.2 5.8,30.64 C9.24,34.08 13.49,35.77 18.48,35.77 C23.47,35.77 27.72,34.08 31.16,30.64 C34.6,27.2 36.35,22.95 36.35,17.96 C36.35,12.97 34.6,8.79 31.16,5.35 C27.72,1.91 23.47,0.16 18.48,0.16 Z M25.02,24.64 C23.27,26.39 21.11,27.27 18.48,27.27 C15.85,27.27 13.69,26.39 11.94,24.64 C10.25,22.89 9.38,20.66 9.38,17.96 C9.38,15.26 10.26,13.04 11.94,11.28 C13.69,9.53 15.85,8.65 18.48,8.65 C21.11,8.65 23.27,9.53 25.02,11.28 C26.77,13.03 27.65,15.26 27.65,17.96 C27.65,20.66 26.77,22.89 25.02,24.64 Z" id="XMLID_1697_"/>
                        </g>
                    </g>
                    <g id="XMLID_1690_" transform="translate(78.000000, 0.000000)">
                        <g id="XMLID_1691_">
                            <path d="M18.57,0.16 C13.58,0.16 9.33,1.91 5.89,5.35 C2.45,8.79 0.76,12.97 0.76,17.96 C0.76,22.95 2.45,27.2 5.89,30.64 C9.33,34.08 13.58,35.77 18.57,35.77 C23.56,35.77 27.81,34.08 31.25,30.64 C34.69,27.2 36.44,22.95 36.44,17.96 C36.44,12.97 34.69,8.79 31.25,5.35 C27.81,1.91 23.56,0.16 18.57,0.16 Z M25.11,24.64 C23.36,26.39 21.2,27.27 18.57,27.27 C15.94,27.27 13.78,26.39 12.03,24.64 C10.34,22.89 9.47,20.66 9.47,17.96 C9.47,15.26 10.35,13.04 12.03,11.28 C13.78,9.53 15.94,8.65 18.57,8.65 C21.2,8.65 23.36,9.53 25.11,11.28 C26.86,13.03 27.74,15.26 27.74,17.96 C27.74,20.66 26.86,22.89 25.11,24.64 Z" id="XMLID_1692_"/>
                        </g>
                    </g>
                    <g id="XMLID_1688_" transform="translate(238.000000, 0.000000)">
                        <path d="M18.24,27.15 C15.61,27.15 13.45,26.27 11.77,24.59 C10.08,22.84 9.21,20.61 9.21,17.98 C9.21,12.59 13.05,8.74 18.25,8.74 C21.13,8.74 23.64,9.97 25.17,12 C25.67,12.67 26.58,12.88 27.31,12.46 L32.02,9.7 C32.83,9.22 33.07,8.16 32.54,7.38 C29.53,2.92 24.23,0.17 18.32,0.17 C13.26,0.17 9.01,1.86 5.57,5.3 C2.2,8.74 0.51,12.92 0.51,17.98 C0.51,23.04 2.2,27.22 5.57,30.66 C9.01,34.1 13.26,35.79 18.32,35.79 C24.22,35.79 29.46,32.99 32.61,28.54 C33.16,27.76 32.93,26.66 32.09,26.19 L27.36,23.49 C26.64,23.08 25.74,23.29 25.24,23.95 C23.7,25.96 21.19,27.15 18.24,27.15 Z" id="XMLID_1689_"/>
                    </g>
                </g>
            </g>
        </g>
    </g>
</svg>